<svg xmlns="http://www.w3.org/2000/svg" width="290.432" height="145.192" viewBox="0 0 290.432 145.192">
  <path id="Path_1838" data-name="Path 1838" d="M1920,105.5v68.886a76.33,76.33,0,0,0,0,152.66v68.886a145.216,145.216,0,0,1,0-290.432" transform="translate(-105.5 1920) rotate(-90)" fill="#398b35"/>
</svg>
