<?xml version="1.0" encoding="utf-8"?>
<!-- Generator: Adobe Illustrator 23.0.6, SVG Export Plug-In . SVG Version: 6.00 Build 0)  -->
<svg version="1.1" id="Layer_1" xmlns="http://www.w3.org/2000/svg" xmlns:xlink="http://www.w3.org/1999/xlink" x="0px" y="0px"
	 viewBox="0 0 439 190" style="enable-background:new 0 0 439 190;" xml:space="preserve">
<style type="text/css">
	.st0{clip-path:url(#SVGID_2_);}
	.st1{enable-background:new    ;}
	.st2{fill:none;stroke:#E6E6E6;}
</style>
<g>
	<defs>
		<rect id="SVGID_1_" width="439" height="190"/>
	</defs>
	<clipPath id="SVGID_2_">
		<use xlink:href="#SVGID_1_"  style="overflow:visible;"/>
	</clipPath>
	<g id="Repeat_Grid_4" class="st0">
		<g transform="translate(-936 -274)">
			<g class="st1">
				<path class="st2" d="M1020.6,443.9c-1-0.7-1.8-1.7-2.6-2.8l-5.8-7.5c-4.2,1.4-9,2-14.5,2c-16.1,0-28.8-3.9-38.1-11.7
					c-9.3-7.8-14.2-19.3-14.8-34.5c-0.1-3.2-0.2-8-0.2-14.6c0-6.6,0.1-11.5,0.2-14.8c0.6-15,5.6-26.5,15-34.6
					c9.4-8.1,22-12.2,37.9-12.2c15.9,0,28.5,4.1,37.9,12.2c9.4,8.1,14.4,19.6,15,34.6c0.2,6.6,0.3,11.5,0.3,14.8
					c0,3.4-0.1,8.3-0.3,14.6c-0.7,13.8-4.8,24.7-12.4,32.5l12.6,17.9c0.3,0.7,0.5,1.2,0.5,1.7v0.5c0,0.8-0.3,1.5-1,2.1
					c-0.7,0.6-1.5,0.9-2.4,0.9h-23.5C1022.8,445,1021.5,444.7,1020.6,443.9z M1011.8,404.8c3.5-3.6,5.4-9,5.6-16.4
					c0.2-6.6,0.3-11.3,0.3-14.1c0-2.8-0.1-7.4-0.3-13.8c-0.2-7.4-2.1-12.8-5.6-16.4c-3.5-3.6-8.2-5.4-14.1-5.4
					c-5.9,0-10.6,1.8-14.1,5.4c-3.5,3.6-5.4,9-5.6,16.4c-0.1,3.2-0.2,7.8-0.2,13.8c0,6.1,0.1,10.8,0.2,14.1
					c0.2,7.4,2.1,12.8,5.6,16.4c3.5,3.6,8.2,5.4,14.1,5.4C1003.6,410.2,1008.3,408.4,1011.8,404.8z"/>
				<path class="st2" d="M1082.8,424c-9.1-7.8-13.7-19.5-13.7-35.2v-69.4c0-1.2,0.4-2.3,1.2-3.1c0.8-0.9,1.8-1.3,3.1-1.3h23.3
					c1.2,0,2.3,0.4,3.1,1.3c0.9,0.8,1.3,1.9,1.3,3.1v69c0,7,1.7,12.3,5,15.8c3.3,3.5,8.1,5.3,14.4,5.3c6.2,0,11-1.8,14.4-5.4
					c3.3-3.6,5-8.8,5-15.7v-69c0-1.2,0.4-2.3,1.3-3.1c0.8-0.9,1.9-1.3,3.1-1.3h23.1c1.2,0,2.3,0.4,3.1,1.3c0.8,0.8,1.3,1.9,1.3,3.1
					v69.4c0,15.6-4.5,27.4-13.6,35.2c-9.1,7.8-21.6,11.7-37.6,11.7C1104.5,435.7,1091.9,431.8,1082.8,424z"/>
				<path class="st2" d="M1195.1,432.7c-0.9-0.8-1.3-1.8-1.3-3V319.2c0-1.2,0.4-2.3,1.3-3.1c0.9-0.8,1.8-1.2,3-1.2h24.3
					c1.2,0,2.3,0.4,3.1,1.2c0.8,0.8,1.2,1.8,1.2,3.1v110.5c0,1.1-0.4,2.1-1.2,3c-0.8,0.9-1.8,1.3-3.1,1.3h-24.3
					C1197,434,1196,433.6,1195.1,432.7z M1196.4,303.8c0-0.9,0.3-1.6,0.9-2.2l15.1-18.5c1.1-1.4,2.1-2.2,3-2.6
					c0.9-0.4,2-0.6,3.3-0.6h24.8c1,0,1.8,0.3,2.4,0.9c0.6,0.6,0.8,1.4,0.8,2.5c0,0.8-0.3,1.5-0.8,2l-22.8,18.7
					c-1.1,0.9-2.2,1.6-3.1,2c-0.9,0.4-2,0.6-3.4,0.6h-17.5C1197.3,306.5,1196.4,305.6,1196.4,303.8z"/>
				<path class="st2" d="M1251.1,432.8c-0.8-0.8-1.3-1.8-1.3-3.1V319.4c0-1.2,0.4-2.3,1.3-3.1c0.9-0.9,1.9-1.3,3.1-1.3h19.2
					c2.8,0,4.9,1.2,6.1,3.7l29.2,52.4l29.4-52.4c1.2-2.5,3.3-3.7,6.1-3.7h19.2c1.2,0,2.3,0.4,3.1,1.3c0.9,0.8,1.3,1.9,1.3,3.1v110.3
					c0,1.2-0.4,2.3-1.3,3.1c-0.8,0.8-1.9,1.2-3.1,1.2h-21.6c-1.1,0-2.1-0.4-3-1.3c-0.8-0.8-1.3-1.8-1.3-3v-61.9l-18.4,33.7
					c-1.5,2.6-3.5,3.9-6,3.9h-9.2c-2.3,0-4.2-1.3-5.9-3.9l-18.2-33.7v61.9c0,1.2-0.4,2.3-1.3,3.1c-0.9,0.8-1.9,1.2-3.1,1.2h-21.4
					C1253,434,1251.9,433.6,1251.1,432.8z"/>
			</g>
		</g>
	</g>
</g>
</svg>
